19:14:44.661 [main] INFO  slenium.utils.Log - Started the suite with Chrome browser
19:14:47.052 [main] INFO  slenium.utils.Log - Open the https://keybooks.ro/ 
19:14:47.074 [main] INFO  slenium.utils.Log - +++++++++++++++++++++++++++++++++++++++++++++++++++
19:14:47.074 [main] INFO  slenium.utils.Log - ++++++++++++++++++++++++++Start methodloginTest+++++++++++++++++++++++++
19:14:47.080 [main] INFO  slenium.utils.Log - ++++++++++++++++++++++++++Start method2021.11.04.19.14.47+++++++++++++++++++++++++
19:14:47.201 [main] INFO  slenium.utils.Log - navigated to login
19:14:47.617 [main] INFO  slenium.utils.Log - try to loginTestUser and password 12345@67890
19:14:56.977 [main] ERROR slenium.utils.Log - +++++++++++++++++++++++++++++++++++++++++++++++++++
19:14:56.979 [main] ERROR slenium.utils.Log - ++++++++++++++++++++++++++Failure: loginTest+++++++++++++++++++++++++
19:14:56.980 [main] ERROR slenium.utils.Log - ++++++++++++++++++++++++++Fail time: 2021.11.04.19.14.56+++++++++++++++++++++++++
19:15:09.176 [main] ERROR slenium.utils.Log - +++++++++++++++++++++++++++++++++++++++++++++++++++
19:15:09.176 [main] ERROR slenium.utils.Log - ++++++++++++++++++++++++++Failure: loginTest+++++++++++++++++++++++++
19:15:09.177 [main] ERROR slenium.utils.Log - ++++++++++++++++++++++++++Fail time: 2021.11.04.19.15.09+++++++++++++++++++++++++
